{
    "name": "root",
    "gauges": {
        "Paleta.Policy.Entropy.mean": {
            "value": 0.3733234405517578,
            "min": 0.3733234405517578,
            "max": 0.6735806465148926,
            "count": 10
        },
        "Paleta.Policy.Entropy.sum": {
            "value": 18687.82421875,
            "min": 18687.82421875,
            "max": 33839.34375,
            "count": 10
        },
        "Paleta.Environment.EpisodeLength.mean": {
            "value": 24.720308483290488,
            "min": 23.766336633663368,
            "max": 24.720308483290488,
            "count": 10
        },
        "Paleta.Environment.EpisodeLength.sum": {
            "value": 48081.0,
            "min": 47993.0,
            "max": 48081.0,
            "count": 10
        },
        "Paleta.Step.mean": {
            "value": 499995.0,
            "min": 49987.0,
            "max": 499995.0,
            "count": 10
        },
        "Paleta.Step.sum": {
            "value": 499995.0,
            "min": 49987.0,
            "max": 499995.0,
            "count": 10
        },
        "Paleta.Policy.ExtrinsicValueEstimate.mean": {
            "value": -8.852389335632324,
            "min": -8.892699241638184,
            "max": -5.488841533660889,
            "count": 10
        },
        "Paleta.Policy.ExtrinsicValueEstimate.sum": {
            "value": -17271.01171875,
            "min": -17714.2578125,
            "max": -11114.904296875,
            "count": 10
        },
        "Paleta.Environment.CumulativeReward.mean": {
            "value": -9.973984477766681,
            "min": -9.97629063780744,
            "max": -9.973857117482927,
            "count": 10
        },
        "Paleta.Environment.CumulativeReward.sum": {
            "value": -19399.399809256196,
            "min": -20140.399829283357,
            "max": -19399.399809256196,
            "count": 10
        },
        "Paleta.Policy.ExtrinsicReward.mean": {
            "value": -9.973984477766681,
            "min": -9.97629063780744,
            "max": -9.973857117482927,
            "count": 10
        },
        "Paleta.Policy.ExtrinsicReward.sum": {
            "value": -19399.399809256196,
            "min": -20140.399829283357,
            "max": -19399.399809256196,
            "count": 10
        },
        "Paleta.Losses.PolicyLoss.mean": {
            "value": 0.02463388111287107,
            "min": 0.022362353345379234,
            "max": 0.02625764655570189,
            "count": 10
        },
        "Paleta.Losses.PolicyLoss.sum": {
            "value": 0.12316940556435535,
            "min": 0.0953823568765074,
            "max": 0.13128823277850946,
            "count": 10
        },
        "Paleta.Losses.ValueLoss.mean": {
            "value": 0.03521347475548585,
            "min": 0.009233103742202124,
            "max": 4.145059083898862,
            "count": 10
        },
        "Paleta.Losses.ValueLoss.sum": {
            "value": 0.17606737377742926,
            "min": 0.045107090612873435,
            "max": 16.580236335595448,
            "count": 10
        },
        "Paleta.Policy.LearningRate.mean": {
            "value": 1.6871854376080004e-05,
            "min": 1.6871854376080004e-05,
            "max": 0.0002846325051225,
            "count": 10
        },
        "Paleta.Policy.LearningRate.sum": {
            "value": 8.435927188040001e-05,
            "min": 8.435927188040001e-05,
            "max": 0.0012847788717403998,
            "count": 10
        },
        "Paleta.Policy.Epsilon.mean": {
            "value": 0.10562392000000001,
            "min": 0.10562392000000001,
            "max": 0.19487750000000004,
            "count": 10
        },
        "Paleta.Policy.Epsilon.sum": {
            "value": 0.5281196,
            "min": 0.5004521999999999,
            "max": 0.9282596000000001,
            "count": 10
        },
        "Paleta.Policy.Beta.mean": {
            "value": 0.000290633608,
            "min": 0.000290633608,
            "max": 0.00474438725,
            "count": 10
        },
        "Paleta.Policy.Beta.sum": {
            "value": 0.00145316804,
            "min": 0.00145316804,
            "max": 0.02142015404,
            "count": 10
        },
        "Paleta.IsTraining.mean": {
            "value": 1.0,
            "min": 1.0,
            "max": 1.0,
            "count": 10
        },
        "Paleta.IsTraining.sum": {
            "value": 1.0,
            "min": 1.0,
            "max": 1.0,
            "count": 10
        }
    },
    "metadata": {
        "timer_format_version": "0.1.0",
        "start_time_seconds": "1677436587",
        "python_version": "3.9.13 (tags/v3.9.13:6de2ca5, May 17 2022, 16:36:42) [MSC v.1929 64 bit (AMD64)]",
        "command_line_arguments": "C:\\Users\\hchen\\AppData\\Local\\Programs\\Python\\Python39\\Scripts\\mlagents-learn --initialize-from=pong1.15 --run-id=pong1.16",
        "mlagents_version": "0.30.0",
        "mlagents_envs_version": "0.30.0",
        "communication_protocol_version": "1.5.0",
        "pytorch_version": "1.13.1+cpu",
        "numpy_version": "1.21.2",
        "end_time_seconds": "1677437032"
    },
    "total": 444.8555819,
    "count": 1,
    "self": 0.008196900000029927,
    "children": {
        "run_training.setup": {
            "total": 0.051497499999999974,
            "count": 1,
            "self": 0.051497499999999974
        },
        "TrainerController.start_learning": {
            "total": 444.7958875,
            "count": 1,
            "self": 1.0362647999958199,
            "children": {
                "TrainerController._reset_env": {
                    "total": 22.1805073,
                    "count": 1,
                    "self": 22.1805073
                },
                "TrainerController.advance": {
                    "total": 421.54591510000415,
                    "count": 44892,
                    "self": 0.944742699991707,
                    "children": {
                        "env_step": {
                            "total": 286.3842371000062,
                            "count": 44892,
                            "self": 254.43058400000982,
                            "children": {
                                "SubprocessEnvManager._take_step": {
                                    "total": 31.352795799995107,
                                    "count": 44892,
                                    "self": 1.8264462999971478,
                                    "children": {
                                        "TorchPolicy.evaluate": {
                                            "total": 29.52634949999796,
                                            "count": 27797,
                                            "self": 29.52634949999796
                                        }
                                    }
                                },
                                "workers": {
                                    "total": 0.6008573000012873,
                                    "count": 44892,
                                    "self": 0.0,
                                    "children": {
                                        "worker_root": {
                                            "total": 424.4632969000081,
                                            "count": 44892,
                                            "is_parallel": true,
                                            "self": 224.75369730001114,
                                            "children": {
                                                "steps_from_proto": {
                                                    "total": 0.0003796999999998718,
                                                    "count": 1,
                                                    "is_parallel": true,
                                                    "self": 0.00017980000000150653,
                                                    "children": {
                                                        "_process_rank_one_or_two_observation": {
                                                            "total": 0.00019989999999836527,
                                                            "count": 2,
                                                            "is_parallel": true,
                                                            "self": 0.00019989999999836527
                                                        }
                                                    }
                                                },
                                                "UnityEnvironment.step": {
                                                    "total": 199.70921989999698,
                                                    "count": 44892,
                                                    "is_parallel": true,
                                                    "self": 4.882979300003569,
                                                    "children": {
                                                        "UnityEnvironment._generate_step_input": {
                                                            "total": 6.683325299995122,
                                                            "count": 44892,
                                                            "is_parallel": true,
                                                            "self": 6.683325299995122
                                                        },
                                                        "communicator.exchange": {
                                                            "total": 176.2889970999991,
                                                            "count": 44892,
                                                            "is_parallel": true,
                                                            "self": 176.2889970999991
                                                        },
                                                        "steps_from_proto": {
                                                            "total": 11.853918199999196,
                                                            "count": 44892,
                                                            "is_parallel": true,
                                                            "self": 6.123384599993173,
                                                            "children": {
                                                                "_process_rank_one_or_two_observation": {
                                                                    "total": 5.730533600006023,
                                                                    "count": 89784,
                                                                    "is_parallel": true,
                                                                    "self": 5.730533600006023
                                                                }
                                                            }
                                                        }
                                                    }
                                                }
                                            }
                                        }
                                    }
                                }
                            }
                        },
                        "trainer_advance": {
                            "total": 134.21693530000624,
                            "count": 44892,
                            "self": 1.4482048000080567,
                            "children": {
                                "process_trajectory": {
                                    "total": 44.5391623999983,
                                    "count": 44892,
                                    "self": 44.46791559999826,
                                    "children": {
                                        "RLTrainer._checkpoint": {
                                            "total": 0.07124680000003991,
                                            "count": 1,
                                            "self": 0.07124680000003991
                                        }
                                    }
                                },
                                "_update_policy": {
                                    "total": 88.22956809999988,
                                    "count": 48,
                                    "self": 62.203096699998845,
                                    "children": {
                                        "TorchPPOOptimizer.update": {
                                            "total": 26.026471400001036,
                                            "count": 1440,
                                            "self": 26.026471400001036
                                        }
                                    }
                                }
                            }
                        }
                    }
                },
                "trainer_threads": {
                    "total": 6.999999868639861e-07,
                    "count": 1,
                    "self": 6.999999868639861e-07
                },
                "TrainerController._save_models": {
                    "total": 0.03319960000004585,
                    "count": 1,
                    "self": 0.0008762000000501757,
                    "children": {
                        "RLTrainer._checkpoint": {
                            "total": 0.03232339999999567,
                            "count": 1,
                            "self": 0.03232339999999567
                        }
                    }
                }
            }
        }
    }
}