{
    "name": "root",
    "gauges": {
        "Paleta.Policy.Entropy.mean": {
            "value": 0.33031129837036133,
            "min": 0.33031129837036133,
            "max": 0.6530424356460571,
            "count": 10
        },
        "Paleta.Policy.Entropy.sum": {
            "value": 16493.103515625,
            "min": 16493.103515625,
            "max": 32889.828125,
            "count": 10
        },
        "Paleta.Environment.EpisodeLength.mean": {
            "value": 41.6965811965812,
            "min": 24.0200100050025,
            "max": 41.75449101796407,
            "count": 10
        },
        "Paleta.Environment.EpisodeLength.sum": {
            "value": 48785.0,
            "min": 48016.0,
            "max": 48811.0,
            "count": 10
        },
        "Paleta.Step.mean": {
            "value": 499948.0,
            "min": 49988.0,
            "max": 499948.0,
            "count": 10
        },
        "Paleta.Step.sum": {
            "value": 499948.0,
            "min": 49988.0,
            "max": 499948.0,
            "count": 10
        },
        "Paleta.Policy.ExtrinsicValueEstimate.mean": {
            "value": -8.121048927307129,
            "min": -8.87415599822998,
            "max": -7.033172607421875,
            "count": 10
        },
        "Paleta.Policy.ExtrinsicValueEstimate.sum": {
            "value": -11954.18359375,
            "min": -17455.46484375,
            "max": -11927.751953125,
            "count": 10
        },
        "Paleta.Environment.CumulativeReward.mean": {
            "value": -9.922222122499067,
            "min": -9.975775695002234,
            "max": -9.922222122499067,
            "count": 10
        },
        "Paleta.Environment.CumulativeReward.sum": {
            "value": -11608.999883323908,
            "min": -19931.599838614464,
            "max": -11608.999883323908,
            "count": 10
        },
        "Paleta.Policy.ExtrinsicReward.mean": {
            "value": -9.922222122499067,
            "min": -9.975775695002234,
            "max": -9.922222122499067,
            "count": 10
        },
        "Paleta.Policy.ExtrinsicReward.sum": {
            "value": -11608.999883323908,
            "min": -19931.599838614464,
            "max": -11608.999883323908,
            "count": 10
        },
        "Paleta.Losses.PolicyLoss.mean": {
            "value": 0.022904234997307264,
            "min": 0.022058037396830814,
            "max": 0.02542305909562856,
            "count": 10
        },
        "Paleta.Losses.PolicyLoss.sum": {
            "value": 0.11452117498653631,
            "min": 0.08823214958732326,
            "max": 0.1271152954781428,
            "count": 10
        },
        "Paleta.Losses.ValueLoss.mean": {
            "value": 0.07742556003232796,
            "min": 0.016057959211369356,
            "max": 2.0488066814839843,
            "count": 10
        },
        "Paleta.Losses.ValueLoss.sum": {
            "value": 0.38712780016163983,
            "min": 0.08028979605684677,
            "max": 8.195226725935937,
            "count": 10
        },
        "Paleta.Policy.LearningRate.mean": {
            "value": 1.6794454401880004e-05,
            "min": 1.6794454401880004e-05,
            "max": 0.00028461495512835,
            "count": 10
        },
        "Paleta.Policy.LearningRate.sum": {
            "value": 8.397227200940002e-05,
            "min": 8.397227200940002e-05,
            "max": 0.0012845058718313998,
            "count": 10
        },
        "Paleta.Policy.Epsilon.mean": {
            "value": 0.10559811999999999,
            "min": 0.10559811999999999,
            "max": 0.19487165,
            "count": 10
        },
        "Paleta.Policy.Epsilon.sum": {
            "value": 0.5279906,
            "min": 0.5003875999999998,
            "max": 0.9281686000000002,
            "count": 10
        },
        "Paleta.Policy.Beta.mean": {
            "value": 0.00028934618800000007,
            "min": 0.00028934618800000007,
            "max": 0.004744095335,
            "count": 10
        },
        "Paleta.Policy.Beta.sum": {
            "value": 0.0014467309400000004,
            "min": 0.0014467309400000004,
            "max": 0.021415613140000005,
            "count": 10
        },
        "Paleta.IsTraining.mean": {
            "value": 1.0,
            "min": 1.0,
            "max": 1.0,
            "count": 10
        },
        "Paleta.IsTraining.sum": {
            "value": 1.0,
            "min": 1.0,
            "max": 1.0,
            "count": 10
        }
    },
    "metadata": {
        "timer_format_version": "0.1.0",
        "start_time_seconds": "1677176502",
        "python_version": "3.7.9 (tags/v3.7.9:13c94747c7, Aug 17 2020, 18:58:18) [MSC v.1900 64 bit (AMD64)]",
        "command_line_arguments": "C:\\Users\\IES SABADELL\\AppData\\Local\\Programs\\Python\\Python37\\Scripts\\mlagents-learn --initialize-from=pong1.1 --run-id=pong1.2",
        "mlagents_version": "0.29.0",
        "mlagents_envs_version": "0.29.0",
        "communication_protocol_version": "1.5.0",
        "pytorch_version": "1.13.1+cpu",
        "numpy_version": "1.21.2",
        "end_time_seconds": "1677176993"
    },
    "total": 491.6553755,
    "count": 1,
    "self": 0.011900299999979325,
    "children": {
        "run_training.setup": {
            "total": 0.09486339999999993,
            "count": 1,
            "self": 0.09486339999999993
        },
        "TrainerController.start_learning": {
            "total": 491.5486118,
            "count": 1,
            "self": 1.0672361000031287,
            "children": {
                "TrainerController._reset_env": {
                    "total": 11.7305035,
                    "count": 1,
                    "self": 11.7305035
                },
                "TrainerController.advance": {
                    "total": 478.68383869999684,
                    "count": 41863,
                    "self": 1.0864098999967382,
                    "children": {
                        "env_step": {
                            "total": 327.50311689999984,
                            "count": 41863,
                            "self": 292.9412692000011,
                            "children": {
                                "SubprocessEnvManager._take_step": {
                                    "total": 33.87620829999926,
                                    "count": 41863,
                                    "self": 2.0139158000028274,
                                    "children": {
                                        "TorchPolicy.evaluate": {
                                            "total": 31.862292499996435,
                                            "count": 27794,
                                            "self": 8.779328700000598,
                                            "children": {
                                                "TorchPolicy.sample_actions": {
                                                    "total": 23.082963799995838,
                                                    "count": 27794,
                                                    "self": 23.082963799995838
                                                }
                                            }
                                        }
                                    }
                                },
                                "workers": {
                                    "total": 0.6856393999994754,
                                    "count": 41863,
                                    "self": 0.0,
                                    "children": {
                                        "worker_root": {
                                            "total": 478.35247449999855,
                                            "count": 41863,
                                            "is_parallel": true,
                                            "self": 245.4769312000042,
                                            "children": {
                                                "steps_from_proto": {
                                                    "total": 0.0008507000000008702,
                                                    "count": 1,
                                                    "is_parallel": true,
                                                    "self": 0.0003942000000005663,
                                                    "children": {
                                                        "_process_rank_one_or_two_observation": {
                                                            "total": 0.0004565000000003039,
                                                            "count": 2,
                                                            "is_parallel": true,
                                                            "self": 0.0004565000000003039
                                                        }
                                                    }
                                                },
                                                "UnityEnvironment.step": {
                                                    "total": 232.87469259999435,
                                                    "count": 41863,
                                                    "is_parallel": true,
                                                    "self": 6.175074399988034,
                                                    "children": {
                                                        "UnityEnvironment._generate_step_input": {
                                                            "total": 10.767652800000391,
                                                            "count": 41863,
                                                            "is_parallel": true,
                                                            "self": 10.767652800000391
                                                        },
                                                        "communicator.exchange": {
                                                            "total": 198.8262631999989,
                                                            "count": 41863,
                                                            "is_parallel": true,
                                                            "self": 198.8262631999989
                                                        },
                                                        "steps_from_proto": {
                                                            "total": 17.105702200007006,
                                                            "count": 41863,
                                                            "is_parallel": true,
                                                            "self": 9.193120200011334,
                                                            "children": {
                                                                "_process_rank_one_or_two_observation": {
                                                                    "total": 7.9125819999956715,
                                                                    "count": 83726,
                                                                    "is_parallel": true,
                                                                    "self": 7.9125819999956715
                                                                }
                                                            }
                                                        }
                                                    }
                                                }
                                            }
                                        }
                                    }
                                }
                            }
                        },
                        "trainer_advance": {
                            "total": 150.09431190000026,
                            "count": 41863,
                            "self": 1.5796992999979125,
                            "children": {
                                "process_trajectory": {
                                    "total": 53.251595700002476,
                                    "count": 41863,
                                    "self": 53.16052110000252,
                                    "children": {
                                        "RLTrainer._checkpoint": {
                                            "total": 0.09107459999995626,
                                            "count": 1,
                                            "self": 0.09107459999995626
                                        }
                                    }
                                },
                                "_update_policy": {
                                    "total": 95.26301689999987,
                                    "count": 48,
                                    "self": 67.33742140000041,
                                    "children": {
                                        "TorchPPOOptimizer.update": {
                                            "total": 27.925595499999464,
                                            "count": 1440,
                                            "self": 27.925595499999464
                                        }
                                    }
                                }
                            }
                        }
                    }
                },
                "trainer_threads": {
                    "total": 8.000000093488779e-07,
                    "count": 1,
                    "self": 8.000000093488779e-07
                },
                "TrainerController._save_models": {
                    "total": 0.06703270000002703,
                    "count": 1,
                    "self": 0.014735500000028878,
                    "children": {
                        "RLTrainer._checkpoint": {
                            "total": 0.052297199999998156,
                            "count": 1,
                            "self": 0.052297199999998156
                        }
                    }
                }
            }
        }
    }
}