{
    "Paleta": {
        "checkpoints": [
            {
                "steps": 499939,
                "file_path": "results\\pong1.3\\Paleta\\Paleta-499939.onnx",
                "reward": -9.899999844368365,
                "creation_time": 1677177547.3414602,
                "auxillary_file_paths": [
                    "results\\pong1.3\\Paleta\\Paleta-499939.pt"
                ]
            },
            {
                "steps": 500003,
                "file_path": "results\\pong1.3\\Paleta\\Paleta-500003.onnx",
                "reward": -9.899999844368365,
                "creation_time": 1677177547.405293,
                "auxillary_file_paths": [
                    "results\\pong1.3\\Paleta\\Paleta-500003.pt"
                ]
            }
        ],
        "final_checkpoint": {
            "steps": 500003,
            "file_path": "results\\pong1.3\\Paleta.onnx",
            "reward": -9.899999844368365,
            "creation_time": 1677177547.405293,
            "auxillary_file_paths": [
                "results\\pong1.3\\Paleta\\Paleta-500003.pt"
            ]
        }
    },
    "metadata": {
        "stats_format_version": "0.3.0",
        "mlagents_version": "0.29.0",
        "torch_version": "1.13.1+cpu"
    }
}